{"photos":{"page":1,"pages":31875,"perpage":30,"total":956242,"photo":[{"id":"52470356738","owner":"195318139@N07","secret":"0c663fae56","server":"65535","farm":66,"title":"","ispublic":1,"isfriend":0,"isfamily":0,"url_m":"https:\/\/live.staticflickr.com\/65535\/52470356738_0c663fae56.jpg","height_m":281,"width_m":500},{"id":"52470355638","owner":"196520126@N08","secret":"913b5117b3","server":"65535","farm":66,"title":"Fotos de perfil para tik tok para hombres solitarios","ispublic":1,"isfriend":0,"isfamily":0,"url_m":"https:\/\/live.staticflickr.com\/65535\/52470355638_913b5117b3.jpg","height_m":500,"width_m":333},{"id":"52470135720","owner":"38837659@N06","secret":"95481f128d","server":"65535","farm":66,"title":"Seven of Nine (Jeri Ryan)","ispublic":1,"isfriend":0,"isfamily":0,"url_m":"https:\/\/live.staticflickr.com\/65535\/52470135720_95481f128d.jpg","height_m":500,"width_m":396},{"id":"52470089850","owner":"38974139@N00","secret":"2379b5a89d","server":"65535","farm":66,"title":"Lasseter's!","ispublic":1,"isfriend":0,"isfamily":0,"url_m":"https:\/\/live.staticflickr.com\/65535\/52470089850_2379b5a89d.jpg","height_m":500,"width_m":375},{"id":"52469107012","owner":"192782325@N03","secret":"343cda496d","server":"65535","farm":66,"title":"Corset 2","ispublic":1,"isfriend":0,"isfamily":0,"url_m":"https:\/\/live.staticflickr.com\/65535\/52469107012_343cda496d.jpg","height_m":500,"width_m":375},{"id":"52469607221","owner":"192782325@N03","secret":"243a14098e","server":"65535","farm":66,"title":"Corset 4","ispublic":1,"isfriend":0,"isfamily":0,"url_m":"https:\/\/live.staticflickr.com\/65535\/52469607221_243a14098e.jpg","height_m":500,"width_m":375},{"id":"52470070465","owner":"192782325@N03","secret":"8c724ca9f6","server":"65535","farm":66,"title":"Corset 3","ispublic":1,"isfriend":0,"isfamily":0,"url_m":"https:\/\/live.staticflickr.com\/65535\/52470070465_8c724ca9f6.jpg","height_m":500,"width_m":375},{"id":"52469438391","owner":"186520966@N08","secret":"fe697a919c","server":"65535","farm":66,"title":"Pink again 14","ispublic":1,"isfriend":0,"isfamily":0,"url_m":"https:\/\/live.staticflickr.com\/65535\/52469438391_fe697a919c.jpg","height_m":500,"width_m":375},{"id":"52469425676","owner":"53014304@N06","secret":"aae1c1b669","server":"65535","farm":66,"title":"still sitting","ispublic":1,"isfriend":0,"isfamily":0,"url_m":"https:\/\/live.staticflickr.com\/65535\/52469425676_aae1c1b669.jpg","height_m":333,"width_m":500},{"id":"52468924492","owner":"53014304@N06","secret":"8f55c488f8","server":"65535","farm":66,"title":"still sitting","ispublic":1,"isfriend":0,"isfamily":0,"url_m":"https:\/\/live.staticflickr.com\/65535\/52468924492_8f55c488f8.jpg","height_m":333,"width_m":500},{"id":"52468924362","owner":"53014304@N06","secret":"01ea7b1990","server":"65535","farm":66,"title":"still sitting","ispublic":1,"isfriend":0,"isfamily":0,"url_m":"https:\/\/live.staticflickr.com\/65535\/52468924362_01ea7b1990.jpg","height_m":333,"width_m":500},{"id":"52468924177","owner":"53014304@N06","secret":"db5d01499a","server":"65535","farm":66,"title":"still sitting","ispublic":1,"isfriend":0,"isfamily":0,"url_m":"https:\/\/live.staticflickr.com\/65535\/52468924177_db5d01499a.jpg","height_m":333,"width_m":500},{"id":"52469877013","owner":"196791588@N08","secret":"99042d431a","server":"65535","farm":66,"title":"The Great Smog of London,","ispublic":1,"isfriend":0,"isfamily":0,"url_m":"https:\/\/live.staticflickr.com\/65535\/52469877013_99042d431a.jpg","height_m":500,"width_m":355},{"id":"52468813897","owner":"196791588@N08","secret":"b7190f276d","server":"65535","farm":66,"title":"Battle of FRANCE 1940","ispublic":1,"isfriend":0,"isfamily":0,"url_m":"https:\/\/live.staticflickr.com\/65535\/52468813897_b7190f276d.jpg","height_m":262,"width_m":500},{"id":"52469589139","owner":"196791588@N08","secret":"00c0e60387","server":"65535","farm":66,"title":"Royal Navy Officer","ispublic":1,"isfriend":0,"isfamily":0,"url_m":"https:\/\/live.staticflickr.com\/65535\/52469589139_00c0e60387.jpg","height_m":500,"width_m":378},{"id":"52468770462","owner":"100696104@N05","secret":"a328d38908","server":"65535","farm":66,"title":"2022 - 08 - Karoll  - 0951","ispublic":1,"isfriend":0,"isfamily":0,"url_m":"https:\/\/live.staticflickr.com\/65535\/52468770462_a328d38908.jpg","height_m":500,"width_m":313},{"id":"52469549359","owner":"100696104@N05","secret":"eaa8e0c6d5","server":"65535","farm":66,"title":"2022 - 08 - Karoll  - 0952","ispublic":1,"isfriend":0,"isfamily":0,"url_m":"https:\/\/live.staticflickr.com\/65535\/52469549359_eaa8e0c6d5.jpg","height_m":500,"width_m":338},{"id":"52469667445","owner":"38535102@N04","secret":"8b53111d60","server":"65535","farm":66,"title":"Happy Halloween Trick or Treat","ispublic":1,"isfriend":0,"isfamily":0,"url_m":"https:\/\/live.staticflickr.com\/65535\/52469667445_8b53111d60.jpg","height_m":500,"width_m":368},{"id":"50486926136","owner":"88642461@N05","secret":"26d3cc1baa","server":"65535","farm":66,"title":"Are you ready boots","ispublic":1,"isfriend":0,"isfamily":0,"url_m":"https:\/\/live.staticflickr.com\/65535\/50486926136_26d3cc1baa.jpg","height_m":313,"width_m":500},{"id":"52463871761","owner":"88642461@N05","secret":"bde922310d","server":"65535","farm":66,"title":"paranormal-activity","ispublic":1,"isfriend":0,"isfamily":0,"url_m":"https:\/\/live.staticflickr.com\/65535\/52463871761_bde922310d.jpg","height_m":265,"width_m":500},{"id":"52460165483","owner":"88642461@N05","secret":"b07cb75ea1","server":"0","farm":0,"title":"Why Do We Dream ?","ispublic":1,"isfriend":0,"isfamily":0,"url_m":"https:\/\/live.staticflickr.com\/31337\/52460165483_b07cb75ea1.jpg","height_m":281,"width_m":500},{"id":"52467146133","owner":"196000825@N03","secret":"b8028e1f78","server":"0","farm":0,"title":"TV","ispublic":1,"isfriend":0,"isfamily":0,"url_m":"https:\/\/live.staticflickr.com\/31337\/52467146133_b8028e1f78.jpg","height_m":234,"width_m":500},{"id":"52467113018","owner":"196000825@N03","secret":"6504f1b6e4","server":"0","farm":0,"title":"TV","ispublic":1,"isfriend":0,"isfamily":0,"url_m":"https:\/\/live.staticflickr.com\/31337\/52467113018_6504f1b6e4.jpg","height_m":234,"width_m":500},{"id":"52469014571","owner":"106629525@N07","secret":"5259e4da5f","server":"65535","farm":66,"title":"Hernan Pambukdjian. Hernan Pambukdjian TV Producer. Hernan Mauro Pambukdjian. Pambukdjian. Hollywood. TV Producer. Red Carpet. Emmys. Television Academy. TV","ispublic":1,"isfriend":0,"isfamily":0,"url_m":"https:\/\/live.staticflickr.com\/65535\/52469014571_5259e4da5f.jpg","height_m":500,"width_m":375},{"id":"52469014521","owner":"106629525@N07","secret":"022a20f83a","server":"65535","farm":66,"title":"Hernan Pambukdjian. Hernan Pambukdjian TV Producer. Hernan Mauro Pambukdjian. Pambukdjian. Hollywood. TV Producer. Red Carpet. Euphoria. HBO","ispublic":1,"isfriend":0,"isfamily":0,"url_m":"https:\/\/live.staticflickr.com\/65535\/52469014521_022a20f83a.jpg","height_m":500,"width_m":375},{"id":"52469291814","owner":"106629525@N07","secret":"6a9193a9eb","server":"65535","farm":66,"title":"Hernan Pambukdjian. Hernan Pambukdjian TV Producer. Hernan Mauro Pambukdjian. Pambukdjian. Hollywood. TV Producer. Red Carpet. Pam and Tommy. Pam & Tommy. Hulu","ispublic":1,"isfriend":0,"isfamily":0,"url_m":"https:\/\/live.staticflickr.com\/65535\/52469291814_6a9193a9eb.jpg","height_m":500,"width_m":375},{"id":"52469476415","owner":"106629525@N07","secret":"53977ff03c","server":"65535","farm":66,"title":"Hernan Pambukdjian. Hernan Pambukdjian TV Producer. Hernan Mauro Pambukdjian. Pambukdjian. Hollywood. TV Producer. Red Carpet. Queer Eye. Netflix. Antoni Porowski","ispublic":1,"isfriend":0,"isfamily":0,"url_m":"https:\/\/live.staticflickr.com\/65535\/52469476415_53977ff03c.jpg","height_m":500,"width_m":375},{"id":"52469560858","owner":"106629525@N07","secret":"683b2a4bdd","server":"65535","farm":66,"title":"Hernan Pambukdjian. Hernan Pambukdjian TV Producer. Hernan Mauro Pambukdjian. Pambukdjian. Hollywood. TV Producer. Red Carpet. Queer Eye. Netflix. Bobby Berk","ispublic":1,"isfriend":0,"isfamily":0,"url_m":"https:\/\/live.staticflickr.com\/65535\/52469560858_683b2a4bdd.jpg","height_m":500,"width_m":375},{"id":"52469291614","owner":"106629525@N07","secret":"251b517faa","server":"65535","farm":66,"title":"Hernan Pambukdjian. Hernan Pambukdjian TV Producer. Hernan Mauro Pambukdjian. Pambukdjian. Hollywood. TV Producer. Red Carpet. Queer Eye. Netflix. Jonathan Van Ness","ispublic":1,"isfriend":0,"isfamily":0,"url_m":"https:\/\/live.staticflickr.com\/65535\/52469291614_251b517faa.jpg","height_m":500,"width_m":375},{"id":"52468513882","owner":"106629525@N07","secret":"9be72c8c8a","server":"65535","farm":66,"title":"Hernan Pambukdjian. Hernan Pambukdjian TV Producer. Hernan Mauro Pambukdjian. Pambukdjian. Hollywood. TV Producer. Red Carpet. Television Academy. Emmys","ispublic":1,"isfriend":0,"isfamily":0,"url_m":"https:\/\/live.staticflickr.com\/65535\/52468513882_9be72c8c8a.jpg","height_m":500,"width_m":375}]},"stat":"ok"}
